<?xml version="1.0" standalone="no"?>
<!DOCTYPE svg PUBLIC "-//W3C//DTD SVG 1.1//EN" "http://www.w3.org/Graphics/SVG/1.1/DTD/svg11.dtd">
<svg xmlns="http://www.w3.org/2000/svg">
<metadata>Copyright (C) 2015 by original authors @ fontello.com</metadata>
<defs>
<font id="fontello" horiz-adv-x="1000" >
<font-face font-family="fontello" font-weight="400" font-stretch="normal" units-per-em="1000" ascent="850" descent="-150" />
<missing-glyph horiz-adv-x="1000" />
<glyph glyph-name="th-list" unicode="&#xe800;" d="m286 154v-108q0-22-16-37t-38-16h-178q-23 0-38 16t-16 37v108q0 22 16 38t38 15h178q22 0 38-15t16-38z m0 285v-107q0-22-16-38t-38-15h-178q-23 0-38 15t-16 38v107q0 23 16 38t38 16h178q22 0 38-16t16-38z m714-285v-108q0-22-16-37t-38-16h-535q-23 0-38 16t-16 37v108q0 22 16 38t38 15h535q23 0 38-15t16-38z m-714 571v-107q0-22-16-38t-38-16h-178q-23 0-38 16t-16 38v107q0 22 16 38t38 16h178q22 0 38-16t16-38z m714-286v-107q0-22-16-38t-38-15h-535q-23 0-38 15t-16 38v107q0 23 16 38t38 16h535q23 0 38-16t16-38z m0 286v-107q0-22-16-38t-38-16h-535q-23 0-38 16t-16 38v107q0 22 16 38t38 16h535q23 0 38-16t16-38z" horiz-adv-x="1000" />
<glyph glyph-name="ok-circled" unicode="&#xe801;" d="m717 440q0 16-11 26l-50 50q-11 11-25 11t-26-11l-227-227-126 126q-11 11-25 11t-26-11l-50-50q-10-10-10-26 0-15 10-25l202-202q10-10 25-10 15 0 25 10l303 303q11 10 11 25z m140-90q0-117-57-215t-156-156-215-58-216 58-155 156-58 215 58 215 155 156 216 58 215-58 156-156 57-215z" horiz-adv-x="857.1" />
<glyph glyph-name="ok" unicode="&#xe802;" d="m932 534q0-22-15-38l-404-404-76-76q-16-15-38-15t-38 15l-76 76-202 202q-15 16-15 38t15 38l76 76q16 16 38 16t38-16l164-165 366 367q16 16 38 16t38-16l76-76q15-16 15-38z" horiz-adv-x="1000" />
<glyph glyph-name="star-empty" unicode="&#xe803;" d="m634 290l171 165-235 35-106 213-105-213-236-35 171-165-41-235 211 111 211-111z m295 199q0-12-15-27l-203-197 48-279q1-4 1-12 0-28-23-28-10 0-22 7l-251 132-250-132q-13-7-23-7-11 0-17 9t-6 19q0 4 1 12l48 279-203 197q-14 15-14 27 0 21 31 26l280 40 126 254q11 23 27 23t28-23l125-254 280-40q32-5 32-26z" horiz-adv-x="928.6" />
<glyph glyph-name="star" unicode="&#xe804;" d="m929 489q0-12-15-27l-203-197 48-279q1-4 1-12 0-11-6-19t-17-9q-10 0-22 7l-251 132-250-132q-13-7-23-7-11 0-17 9t-6 19q0 4 1 12l48 279-203 197q-14 15-14 27 0 21 31 26l280 40 126 254q11 23 27 23t28-23l125-254 280-40q32-5 32-26z" horiz-adv-x="928.6" />
<glyph glyph-name="spin4" unicode="&#xe805;" d="m498 850c-114 0-228-39-320-116l0 0c173 140 428 130 588-31 134-134 164-332 89-495-10-29-5-50 12-68 21-20 61-23 84 0 3 3 12 15 15 24 71 180 33 393-112 539-99 98-228 147-356 147z m-409-274c-14 0-29-5-39-16-3-3-13-15-15-24-71-180-34-393 112-539 185-185 479-195 676-31l0 0c-173-140-428-130-589 31-134 134-163 333-89 495 11 29 6 50-12 68-11 11-27 17-44 16z" horiz-adv-x="1001" />
<glyph glyph-name="cancel-circled" unicode="&#xe806;" d="m641 224q0 14-10 25l-101 101 101 101q10 11 10 25 0 15-10 26l-51 50q-10 11-25 11-15 0-25-11l-101-101-101 101q-11 11-26 11-15 0-25-11l-50-50q-11-11-11-26 0-14 11-25l101-101-101-101q-11-11-11-25 0-15 11-26l50-50q10-11 25-11 15 0 26 11l101 101 101-101q10-11 25-11 15 0 25 11l51 50q10 11 10 26z m216 126q0-117-57-215t-156-156-215-58-216 58-155 156-58 215 58 215 155 156 216 58 215-58 156-156 57-215z" horiz-adv-x="857.1" />
<glyph glyph-name="cancel-circled-outline" unicode="&#xe807;" d="m469 819q194 0 331-137t138-332-138-331-331-138-331 138-138 331 138 332 331 137z m0-834q151 0 258 107t107 258-107 258-258 107-258-107-107-258 107-258 258-107z m36 365l139-137q12-13 5-29t-24-16q-11 0-19 7l-137 139-138-139q-7-7-18-7-17 0-24 16t5 29l139 137-139 138q-18 17 1 36t36 1l138-138 137 138q18 18 37-1t1-36z" horiz-adv-x="938" />
<glyph glyph-name="cancel" unicode="&#xe808;" d="m654 349l346-346-154-154-346 346-346-346-154 154 346 346-346 346 154 154 346-346 346 346 154-154z" horiz-adv-x="1000" />
<glyph glyph-name="bookmark" unicode="&#xe809;" d="m650 779q12 0 24-5 19-8 29-23t11-35v-719q0-19-11-35t-29-23q-10-4-24-4-27 0-47 18l-246 236-246-236q-20-19-46-19-13 0-25 5-18 7-29 23t-11 35v719q0 19 11 35t29 23q12 5 25 5h585z" horiz-adv-x="714.3" />
<glyph glyph-name="bookmark-empty" unicode="&#xe80a;" d="m643 707h-572v-693l237 227 49 47 50-47 236-227v693z m7 72q12 0 24-5 19-8 29-23t11-35v-719q0-19-11-35t-29-23q-10-4-24-4-27 0-47 18l-246 236-246-236q-20-19-46-19-13 0-25 5-18 7-29 23t-11 35v719q0 19 11 35t29 23q12 5 25 5h585z" horiz-adv-x="714.3" />
<glyph glyph-name="lock-open-alt" unicode="&#xe80b;" d="m589 421q23 0 38-15t16-38v-322q0-22-16-37t-38-16h-535q-23 0-38 16t-16 37v322q0 22 16 38t38 15h17v179q0 103 74 177t176 73 177-73 73-177q0-15-10-25t-25-11h-36q-14 0-25 11t-11 25q0 59-42 101t-101 42-101-42-41-101v-179h410z" horiz-adv-x="642.9" />
<glyph glyph-name="lock" unicode="&#xe80c;" d="m179 421h285v108q0 59-42 101t-101 41-101-41-41-101v-108z m464-53v-322q0-22-16-37t-38-16h-535q-23 0-38 16t-16 37v322q0 22 16 38t38 15h17v108q0 102 74 176t176 74 177-74 73-176v-108h18q23 0 38-15t16-38z" horiz-adv-x="642.9" />
<glyph glyph-name="home" unicode="&#xe80d;" d="m786 296v-267q0-15-11-26t-25-10h-214v214h-143v-214h-214q-15 0-25 10t-11 26v267q0 1 0 2t0 2l321 264 321-264q1-1 1-4z m124 39l-34-41q-5-5-12-6h-2q-7 0-12 3l-386 322-386-322q-7-4-13-4-7 2-12 7l-35 41q-4 5-3 13t6 12l401 334q18 15 42 15t43-15l136-114v109q0 8 5 13t13 5h107q8 0 13-5t5-13v-227l122-102q5-5 6-12t-4-13z" horiz-adv-x="928.6" />
<glyph glyph-name="menu" unicode="&#xe80e;" d="m857 100v-71q0-15-10-25t-26-11h-785q-15 0-25 11t-11 25v71q0 15 11 25t25 11h785q15 0 26-11t10-25z m0 286v-72q0-14-10-25t-26-10h-785q-15 0-25 10t-11 25v72q0 14 11 25t25 10h785q15 0 26-10t10-25z m0 285v-71q0-15-10-25t-26-11h-785q-15 0-25 11t-11 25v71q0 15 11 26t25 10h785q15 0 26-10t10-26z" horiz-adv-x="857.1" />
<glyph glyph-name="cw" unicode="&#xe80f;" d="m857 707v-250q0-14-10-25t-26-11h-250q-23 0-32 23-10 22 7 38l77 77q-82 77-194 77-58 0-111-23t-91-61-62-91-22-111 22-111 62-91 91-61 111-23q66 0 125 29t100 82q4 6 13 7 8 0 14-5l76-77q5-4 6-11t-5-13q-60-74-147-114t-182-41q-87 0-167 34t-136 92-92 137-34 166 34 166 92 137 136 92 167 34q82 0 158-31t137-88l72 72q16 18 39 8 22-9 22-33z" horiz-adv-x="857.1" />
<glyph glyph-name="ccw" unicode="&#xe810;" d="m857 350q0-87-34-166t-91-137-137-92-166-34q-96 0-183 41t-147 114q-4 6-4 13t5 11l76 77q6 5 14 5 9-1 13-7 41-53 100-82t126-29q58 0 110 23t92 61 61 91 22 111-22 111-61 91-92 61-110 23q-55 0-105-20t-90-57l77-77q17-16 8-38-10-23-33-23h-250q-15 0-25 11t-11 25v250q0 24 22 33 22 10 39-8l72-72q60 57 137 88t159 31q87 0 166-34t137-92 91-137 34-166z" horiz-adv-x="857.1" />
<glyph glyph-name="left-circled" unicode="&#xe811;" d="m714 314v72q0 14-10 25t-25 10h-281l106 106q11 11 11 25t-11 25l-51 51q-10 10-25 10t-25-10l-202-202-51-51q-10-10-10-25t10-25l51-51 202-202q10-10 25-10t25 10l51 51q10 10 10 25t-10 25l-106 106h281q14 0 25 10t10 25z m143 36q0-117-57-215t-156-156-215-58-216 58-155 156-58 215 58 215 155 156 216 58 215-58 156-156 57-215z" horiz-adv-x="857.1" />
<glyph glyph-name="right-circled" unicode="&#xe812;" d="m717 350q0 15-10 25l-51 51-202 202q-10 10-25 10t-25-10l-51-51q-10-10-10-25t10-25l106-106h-280q-15 0-26-10t-10-25v-72q0-14 10-25t26-10h280l-106-106q-10-10-10-25t10-25l51-51q10-10 25-10t25 10l202 202 51 51q10 10 10 25z m140 0q0-117-57-215t-156-156-215-58-216 58-155 156-58 215 58 215 155 156 216 58 215-58 156-156 57-215z" horiz-adv-x="857.1" />
<glyph glyph-name="up-circled" unicode="&#xe813;" d="m717 351q0 15-11 25l-202 202-50 50q-10 11-25 11t-26-11l-50-50-202-202q-10-10-10-25t10-26l50-50q11-10 26-10t25 10l105 105v-280q0-14 11-25t25-11h71q15 0 25 11t11 25v280l105-105q11-11 26-11t25 11l50 50q11 11 11 26z m140-1q0-117-57-215t-156-156-215-58-216 58-155 156-58 215 58 215 155 156 216 58 215-58 156-156 57-215z" horiz-adv-x="857.1" />
<glyph glyph-name="down-circled" unicode="&#xe814;" d="m717 349q0 16-11 26l-50 50q-10 10-25 10t-26-10l-105-105v280q0 15-11 25t-25 11h-71q-15 0-25-11t-11-25v-280l-105 105q-11 11-25 11t-26-11l-50-50q-10-10-10-26t10-25l202-202 50-50q11-10 26-10t25 10l50 50 202 202q11 10 11 25z m140 1q0-117-57-215t-156-156-215-58-216 58-155 156-58 215 58 215 155 156 216 58 215-58 156-156 57-215z" horiz-adv-x="857.1" />
<glyph glyph-name="list" unicode="&#xe815;" d="m143 118v-107q0-7-5-13t-13-5h-107q-7 0-13 5t-5 13v107q0 7 5 12t13 6h107q7 0 13-6t5-12z m0 214v-107q0-7-5-13t-13-5h-107q-7 0-13 5t-5 13v107q0 7 5 13t13 5h107q7 0 13-5t5-13z m0 214v-107q0-7-5-12t-13-6h-107q-7 0-13 6t-5 12v107q0 8 5 13t13 5h107q7 0 13-5t5-13z m857-428v-107q0-7-5-13t-13-5h-750q-7 0-12 5t-6 13v107q0 7 6 12t12 6h750q7 0 13-6t5-12z m-857 643v-107q0-8-5-13t-13-5h-107q-7 0-13 5t-5 13v107q0 7 5 12t13 6h107q7 0 13-6t5-12z m857-429v-107q0-7-5-13t-13-5h-750q-7 0-12 5t-6 13v107q0 7 6 13t12 5h750q7 0 13-5t5-13z m0 214v-107q0-7-5-12t-13-6h-750q-7 0-12 6t-6 12v107q0 8 6 13t12 5h750q7 0 13-5t5-13z m0 215v-107q0-8-5-13t-13-5h-750q-7 0-12 5t-6 13v107q0 7 6 12t12 6h750q7 0 13-6t5-12z" horiz-adv-x="1000" />
<glyph glyph-name="list-bullet" unicode="&#xe816;" d="m214 64q0-44-31-76t-76-31-76 31-31 76 31 76 76 31 76-31 31-76z m0 286q0-45-31-76t-76-31-76 31-31 76 31 76 76 31 76-31 31-76z m786-232v-107q0-7-5-13t-13-5h-678q-8 0-13 5t-5 13v107q0 7 5 12t13 6h678q7 0 13-6t5-12z m-786 518q0-45-31-76t-76-31-76 31-31 76 31 76 76 31 76-31 31-76z m786-232v-108q0-7-5-12t-13-5h-678q-8 0-13 5t-5 12v108q0 7 5 12t13 5h678q7 0 13-5t5-12z m0 285v-107q0-7-5-12t-13-6h-678q-8 0-13 6t-5 12v107q0 8 5 13t13 5h678q7 0 13-5t5-13z" horiz-adv-x="1000" />
<glyph glyph-name="align-justify" unicode="&#xe817;" d="m1000 100v-71q0-15-11-25t-25-11h-928q-15 0-25 11t-11 25v71q0 15 11 25t25 11h928q15 0 25-11t11-25z m0 214v-71q0-15-11-25t-25-11h-928q-15 0-25 11t-11 25v71q0 15 11 25t25 11h928q15 0 25-11t11-25z m0 215v-72q0-14-11-25t-25-11h-928q-15 0-25 11t-11 25v72q0 14 11 25t25 10h928q15 0 25-10t11-25z m0 214v-72q0-14-11-25t-25-10h-928q-15 0-25 10t-11 25v72q0 14 11 25t25 11h928q15 0 25-11t11-25z" horiz-adv-x="1000" />
<glyph glyph-name="tasks" unicode="&#xe818;" d="m571 64h358v72h-358v-72z m-214 286h572v71h-572v-71z m357 286h215v71h-215v-71z m286-465v-142q0-15-11-25t-25-11h-928q-15 0-25 11t-11 25v142q0 15 11 26t25 10h928q15 0 25-10t11-26z m0 286v-143q0-14-11-25t-25-10h-928q-15 0-25 10t-11 25v143q0 15 11 25t25 11h928q15 0 25-11t11-25z m0 286v-143q0-15-11-25t-25-11h-928q-15 0-25 11t-11 25v143q0 14 11 25t25 11h928q15 0 25-11t11-25z" horiz-adv-x="1000" />
<glyph glyph-name="at" unicode="&#xe819;" d="m542 418q0 60-29 94t-83 34q-35 0-69-17t-61-47-45-77-17-100q0-63 30-97t84-34q54 0 98 37t69 93 23 113z m315-68q0-62-21-110t-54-75-74-42-81-15q-3 0-8 0t-10-1q-53 0-79 30-15 18-18 46-29-37-74-61t-96-25q-90 0-140 54t-49 150q0 88 37 162t100 117 137 43q48 0 86-19t60-56l1 11 6 31q0 3 3 7t5 3h66q3 0 7-6 3-3 2-9l-67-343q-3-13-3-27 0-21 7-29t25-7q16 1 32 3t41 14 43 28 31 49 14 77q0 163-97 260t-260 97q-73 0-139-28t-114-77-76-113-29-139 29-139 76-114 114-76 139-28q127 0 226 80 6 5 13 5t12-7l23-27q4-7 3-14-1-7-6-12-57-46-127-72t-144-25q-87 0-167 34t-136 92-92 137-34 166 34 166 92 137 136 92 167 34q192 0 310-119t118-310z" horiz-adv-x="857.1" />
<glyph glyph-name="google" unicode="&#xe81a;" d="m547 103q0 14-3 27t-9 24-15 23-16 19-22 20-20 16-23 16-20 15q-9 1-28 1-29 0-58-4t-60-14-54-25-38-42-15-59q0-31 13-57t34-42 48-28 56-16 57-5q32 0 62 7t55 22 41 41 15 61z m-65 479q0 33-9 70t-27 72-47 57-65 23q-24 0-46-11t-37-29q-26-33-26-89 0-26 6-55t17-57 29-52 42-37 54-15q20 0 43 10t37 24q29 31 29 89z m-62 268h232l-76-49h-74q42-35 63-74t22-90q0-40-14-72t-33-52-39-36-33-34-14-37q0-20 18-40t43-38 51-41 43-58 18-79q0-51-28-96-39-68-117-101t-166-32q-74 0-138 24t-96 76q-20 33-20 73 0 46 25 84t66 64q73 46 225 56-17 23-26 41t-9 41q0 22 12 47-26-2-38-2-83 0-139 54t-57 137q0 45 20 88t55 73q43 37 102 55t122 18z" horiz-adv-x="714.3" />
<glyph glyph-name="user-add" unicode="&#xe81b;" d="m620 128q180-64 180-122l0-106-800 0 0 202q36 14 82 26 94 34 129 69t35 95q0 22-23 48t-31 74q-2 12-23 25t-25 61q0 16 5 26t9 12l4 4q-8 50-12 88-6 54 40 112t160 58 160-58 42-112l-14-88q18-8 18-42-2-28-9-43t-14-17-14-8-9-18q-10-46-33-73t-23-49q0-60 36-95t130-69z m230 272l150 0 0-100-150 0 0-150-100 0 0 150-150 0 0 100 150 0 0 150 100 0 0-150z" horiz-adv-x="1000" />
<glyph glyph-name="users" unicode="&#xe81c;" d="m1000-90l-224 0 0 150q0 54-30 81t-154 89q40 30 40 84 0 16-13 33t-19 51q-2 8-14 16t-14 42q0 24 12 30-6 34-8 60-4 38 23 78t95 40 96-40 24-78l-8-60q12-6 12-30-2-34-14-42t-14-16q-6-34-19-51t-13-33q0-42 21-66t77-48q112-46 130-80 6-8 9-61t5-101l0-48z m-488 262q182-78 182-124l0-138-694 0 0 184q0 44 84 78 76 32 104 64t28 88q0 20-19 44t-25 68q-2 10-18 22t-20 56q0 14 3 23t7 13l4 2q-6 46-10 82-4 50 33 103t127 53 127-53 33-103l-10-82q14-8 14-38-4-44-20-56t-18-22q-6-44-25-68t-19-44q0-56 28-88t104-64z" horiz-adv-x="1000" />
<glyph glyph-name="user" unicode="&#xe81d;" d="m736 128q204-72 204-122l0-106-940 0 0 106q0 50 204 122 94 34 128 69t34 95q0 22-22 49t-32 73q-2 12-9 18t-14 8-14 17-9 43q0 16 5 26t9 12l4 4q-8 50-12 88-4 54 41 112t157 58 158-58 40-112l-12-88q18-8 18-42-2-28-9-43t-14-17-14-8-9-18q-8-48-31-74t-23-48q0-60 35-95t127-69z" horiz-adv-x="940" />
<glyph glyph-name="list-1" unicode="&#xe81e;" d="m100 200q20 0 35-15t15-35-15-35-35-15l-50 0q-20 0-35 15t-15 35 14 35 36 15l50 0z m0 200q20 0 35-15t15-35-15-35-35-15l-50 0q-20 0-35 15t-15 35 14 35 36 15l50 0z m0 200q20 0 35-15t15-35-15-35-35-15l-50 0q-20 0-35 15t-15 35 14 35 36 15l50 0z m200-100q-20 0-35 15t-15 35 15 35 35 15l350 0q22 0 36-15t14-35-15-35-35-15l-350 0z m350-100q22 0 36-15t14-35-15-35-35-15l-350 0q-20 0-35 15t-15 35 15 35 35 15l350 0z m0-200q22 0 36-15t14-35-15-35-35-15l-350 0q-20 0-35 15t-15 35 15 35 35 15l350 0z" horiz-adv-x="700" />
<glyph glyph-name="menu-1" unicode="&#xe81f;" d="m834 90q42 0 73-30t31-75q0-42-30-73t-74-31l-730 0q-44 0-74 31t-30 73q0 44 31 75t73 30l730 0z m0 364q44 0 74-31t30-73-30-73-74-30l-730 0q-44 0-74 30t-30 73 30 73 74 31l730 0z m0 365q44 0 74-31t30-73q0-43-31-74t-73-31l-730 0q-43 0-73 31t-31 74q0 43 30 73t74 31l730 0z" horiz-adv-x="938" />
<glyph glyph-name="menu-outline" unicode="&#xe820;" d="m885 38l-729 0q-21 0-37-16t-15-37 15-36 37-15l729 0q21 0 37 15t16 36-16 37-37 16z m0 104q65 0 111-46t45-111-45-110-111-46l-729 0q-65 0-110 46t-46 110 46 111 110 46l729 0z m0 261l-729 0q-21 0-37-16t-15-37 15-37 37-15l729 0q21 0 37 15t16 37-16 37-37 16z m0 104q65 0 111-46t45-111-45-110-111-46l-729 0q-65 0-110 46t-46 110 46 111 110 46l729 0z m0 260l-729 0q-21 0-37-15t-15-37 15-37 37-15l729 0q21 0 37 15t16 37-16 37-37 15z m0 105q65 0 111-46t45-111-45-110-111-46l-729 0q-65 0-110 46t-46 110 46 111 110 46l729 0z" horiz-adv-x="1041" />
<glyph glyph-name="googleplus-rect" unicode="&#xe821;" d="m92 850c-51 0-92-26-92-92l0-79c4 3 8 7 12 11 83 68 173 80 250 81l307 0-82-66-89 0c36-31 89-86 89-184 0-108-57-159-118-207-19-19-41-40-41-72 0-32 22-49 38-63l52-40c64-54 148-117 148-217 0-27-3-52-12-72l354 0c51 0 92 28 92 79l0 580-184 0 0-185-79 0 0 185-184 0 0 78 184 0 0 184 79 0 0-184 184 0 0 171c0 66-41 92-92 92l-816 0z m908-263l0-78 1 0 0 78-1 0z m-813 135c-38 0-78-19-102-48-24-31-28-70-28-108 0-98 51-242 176-242 36 0 74 9 98 36 27 31 37 72 37 93 0 106-60 269-181 269z m-187-398l0-259c66 53 180 44 235 47-20 27-43 54-43 99 0 25 7 40 14 57-16-1-32-3-46-3-66 0-120 26-160 59z m251-252c-13 0-91-3-152-24-21-8-69-26-99-66l0-53c0-51 41-79 92-79l377 0c2 7 6 12 6 26-1 75-80 115-190 194-12 2-19 2-34 2z" horiz-adv-x="1001" />
<glyph glyph-name="twitter" unicode="&#xe822;" d="m749-25c0-34-13-64-37-88-25-25-54-37-89-37l-248 0c-103 0-192 36-265 110-73 73-110 161-110 264l0 501c0 35 12 65 37 89 24 24 54 36 89 36 34 0 64-12 88-37 25-24 37-54 37-88l0-181 353 0c32 0 60-12 83-35 22-22 34-49 34-81 0-32-12-59-34-82-23-23-51-34-82-34l-354 0 0-88c0-34 12-64 36-88 24-24 54-36 88-36l248 0c35 0 64-12 89-37 24-24 37-54 37-88" horiz-adv-x="749" />
<glyph glyph-name="facebook-rect" unicode="&#xe823;" d="m183 850c-102 0-183-81-183-183l0-634c0-102 81-183 183-183l344 0 0 391-104 0 0 141 104 0 0 120c0 94 61 181 201 181 57 0 100-5 100-5l-4-132s-43 1-90 1c-50 0-58-24-58-62l0-103 152 0-6-141-146 0 0-391 141 0c102 0 183 81 183 183l0 634c0 102-81 183-183 183l-634 0z" horiz-adv-x="1000" />
<glyph glyph-name="align-justify-1" unicode="&#xe824;" d="m0-89l0 156 1000 0 0-156-1000 0z m0 240l0 156 1000 0 0-156-1000 0z m0 242l0 156 1000 0 0-156-1000 0z m0 240l0 157 1000 0 0-157-1000 0z" horiz-adv-x="1000" />
<glyph glyph-name="up-hand" unicode="&#xe825;" d="m714-43q0 15-10 25t-25 11-26-11-10-25 10-25 26-11 25 11 10 25z m72 426q0 106-93 106-15 0-32-3-9 17-29 27t-41 9-39-10q-27 30-66 30-14 0-31-6t-26-14v185q0 29-22 50t-50 22q-28 0-50-22t-21-50v-321q-11 0-27 8t-31 19-38 18-47 8q-37 0-55-25t-17-64q0-13 78-50 25-14 36-21 36-22 81-62 45-40 59-57 32-38 32-78v-18h357v18q0 40 18 93t36 108 18 100z m71 3q0-74-38-179-33-92-33-125v-161q0-29-21-50t-51-21h-357q-29 0-50 21t-21 50v161q0 6-3 12t-8 13-10 13-12 13-12 12-12 10-10 8q-41 36-72 56-11 7-34 18t-40 21-36 23-27 30-10 39q0 70 37 115t106 46q38 0 71-13v209q0 58 43 101t100 42q58 0 101-42t42-101v-94q35-2 66-21 12 2 24 2 57 0 100-34 77 1 122-47t45-127z" horiz-adv-x="857.1" />
<glyph glyph-name="art-gallery" unicode="&#xe826;" d="m400 725c-250 0-400-200-400-300s50-175 150-175 150-25 150-100c0-100 75-175 175-175 325 0 475 175 475 350 0 300-250 400-550 400z m-62-100c34 0 62-28 62-62 0-35-28-63-62-63-35 0-63 28-63 63 0 34 28 62 63 62z m200 0c34 0 62-28 62-62 0-35-28-63-62-63-35 0-63 28-63 63 0 34 28 62 63 62z m200-100c34 0 62-28 62-62 0-35-28-63-62-63-35 0-63 28-63 63 0 34 28 62 63 62z m-575-50c34 0 62-28 62-62 0-35-28-63-62-63-35 0-63 28-63 63 0 34 28 62 63 62z m312-250c41 0 75-34 75-75s-34-75-75-75-75 34-75 75 34 75 75 75z" horiz-adv-x="950" />
<glyph glyph-name="picture" unicode="&#xe827;" d="m357 529q0-45-31-76t-76-32-76 32-31 76 31 75 76 32 76-32 31-75z m572-215v-250h-786v107l178 179 90-89 285 285z m53 393h-893q-7 0-12-5t-6-13v-678q0-8 6-13t12-5h893q7 0 13 5t5 13v678q0 7-5 13t-13 5z m89-18v-678q0-37-26-63t-63-27h-893q-36 0-63 27t-26 63v678q0 37 26 63t63 27h893q37 0 63-27t26-63z" horiz-adv-x="1071.4" />
<glyph glyph-name="picture-1" unicode="&#xe828;" d="m1360 849v-1000h-1360v1000h1360z m-1240-880h1120v760h-1120v-760z m1000 560q0-33-23-56t-57-24-56 24-24 56 24 57 56 23 57-23 23-57z m43-473q2-1 1-4t-4-3h-956q-4 0-4 4v2q18 36 135 280t144 299q1 2 4 3t3-2l311-386 152 122h7l1-2q39-50 102-155t104-158z" horiz-adv-x="1360" />
<glyph glyph-name="picture-2" unicode="&#xe829;" d="m856 518l-100 0-124 150-214-150-180 0q-52 0-90-39t-38-91l0-160-108 296q-10 38 22 52l680 248q36 10 50-24z m106-90q16 0 27-12t11-28l0-472q0-16-11-28t-27-12l-724 0q-16 0-27 12t-11 28l0 472q0 16 11 28t27 12l724 0z m-56-452l0 162-72 160-166-60-130-132-138 170-92-214 0-86 598 0z" horiz-adv-x="1000" />
<glyph glyph-name="picture-outline" unicode="&#xe82a;" d="m339 559q-31 0-55-23t-24-56q0-31 23-54t56-23q31 0 54 22t23 55-23 56-54 23z m0 51q54 0 92-37t38-93-38-92-92-38-92 38-38 92 38 93 92 37z m156-416q-49 0-94 26t-88 27q-40 0-84-105l592 0q-18 85-46 145t-46 63q-34 0-96-70-25-27-41-42t-43-29-54-15z m234 209q46 0 85-78t55-157l16-78-729 0q3 9 7 23t18 49 32 63 43 50 57 23q55 0 101-26t81-25q25 0 54 24t53 54 57 53 70 25z m312 260l0-625q0-43-30-73t-73-31l-834 0q-44 0-74 31t-30 73l0 625q0 42 30 73t74 31l834 0q42 0 73-31t30-73z m-103-625l0 625-834 0 0-625 834 0z" horiz-adv-x="1041" />
<glyph glyph-name="picture-3" unicode="&#xe82b;" d="m209 481q0 130 130 130t130-130-130-130-130 130z m520-79q41 0 77-61 52-93 79-251l-729 0 17 52q17 54 55 105t85 51q53 0 126-38 25-14 56-14 38 0 86 55 58 65 92 85 27 16 56 16z m-729 261q0 43 30 73t74 31l834 0q42 0 73-31t30-73l0-625q0-44-30-74t-73-31l-834 0q-43 0-73 31t-31 74l0 625z m938-625l0 625-834 0 0-625 834 0z" horiz-adv-x="1041" />
<glyph glyph-name="picture-4" unicode="&#xe82c;" d="m0-68l0 836 1000 0 0-836-1000 0z m76 78l848 0 0 680-848 0 0-680z m90 80l0 59 150 195 102-86 193 291 223-228 0-231-668 0z m0 416q0 37 24 62t62 24q33 0 58-24t24-62q0-33-24-57t-58-25q-37 0-62 25t-24 57z" horiz-adv-x="1000" />
<glyph glyph-name="download-outline" unicode="&#xe82d;" d="m936 64l2-261q0-22-16-37t-37-15l-832 0q-22 0-37 15t-16 37q0 261 1 261 0 11 2 16l105 313q12 35 48 35l29 0-35 36q-46 46-46 110t46 110q31 31 76 41t87-3l0 71q0 65 45 110t111 46 110-46 46-110l0-71q41 13 86 3t77-41q46-46 46-110t-46-110l-35-36 28 0q37 0 49-35l105-313q1-5 1-16z m-712 546q-15-15-15-37t15-36l245-244 245 245q15 15 15 36t-15 36-37 15-37-15l-119-118 0 301q0 21-15 37t-37 15-37-15-16-37l0-301-118 118q-17 17-38 17-20 0-36-17z m-30-286l-86-260 723 0-87 260-96 0-179-177-179 177-96 0z m640-469l0 157-730 0 0-157 730 0z" horiz-adv-x="938" />
<glyph glyph-name="ellipsis-vert" unicode="&#xe82e;" d="m214 154v-108q0-22-15-37t-38-16h-107q-23 0-38 16t-16 37v108q0 22 16 38t38 15h107q22 0 38-15t15-38z m0 285v-107q0-22-15-38t-38-15h-107q-23 0-38 15t-16 38v107q0 23 16 38t38 16h107q22 0 38-16t15-38z m0 286v-107q0-22-15-38t-38-16h-107q-23 0-38 16t-16 38v107q0 22 16 38t38 16h107q22 0 38-16t15-38z" horiz-adv-x="214.3" />
<glyph glyph-name="trash" unicode="&#xe82f;" d="m50 458q122-70 330-70t330 70l-54-486q-2-14-35-36t-100-43-141-21-140 21-100 43-36 36z m488 300q94-18 158-55t64-71l0-10q0-58-112-99t-268-41-268 41-112 99l0 10q0 34 64 71t158 55l42 48q22 26 70 26l92 0q52 0 70-26z m-54-112l84 0q-92 110-104 126-14 16-32 16l-102 0q-22 0-32-16l-106-126 84 0 64 66 82 0z" horiz-adv-x="760" />
<glyph glyph-name="lightbulb" unicode="&#xe830;" d="m0 506q0 143 101 243t243 101 243-101 101-243q0-55-30-121t-71-141-56-115q-15-39-31-94t-24-82-27-53-42-39-63-11-64 11-41 39-26 53-25 82-32 94q-13 43-55 116t-72 140-29 121z m63 0q0-64 82-213 37-64 52-99l293 0q16 35 53 99 82 151 82 213 0 117-82 199t-199 82-199-82-82-199z m93 0q0 78 55 133t133 55q15 0 15-16t-15-16q-65 0-111-45t-45-111q0-15-16-15t-16 15z m67-375q11-33 19-60l213 27q2 12 10 33l-242 0z m29-90q10-35 18-60l154 19q6 16 12 38 2 5 4 15t3 12z m29-89q12-26 25-33t38-7q29 0 43 10t27 45z" horiz-adv-x="687" />
<glyph glyph-name="tag" unicode="&#xe831;" d="m365 792q-109 0-185-76t-76-184 76-184l159-155 286-286 365 365q-369 369-441 444-76 76-184 76z m0 105q151 0 259-107 109-113 440-444 30-31 30-74t-30-74l-365-365q-30-30-74-30t-74 30l-270 270q-8 7-18 15l-157 157q-106 106-106 257t106 258q108 107 259 107z m0-286q-32 0-56-23t-23-56 23-55 56-22 55 22 23 55-23 56-55 23z m0 51q54 0 92-38t38-92-38-92-92-38-92 38-38 92 38 92 92 38z" horiz-adv-x="1094" />
</font>
</defs>
</svg>